Modeling and inference - Linear regression with a numerical predictor
…
Rename the dataset as movie_scores

movie_scores <- fandango |>
  rename(
    critics = rottentomatoes, 
    audience = rottentomatoes_user
  )

Data overview

movie_scores |>
  select(critics, audience)

# A tibble: 146 × 2
   critics audience
     <int>    <int>
 1      74       86
 2      85       80
 3      80       90
 4      18       84
 5      14       28
 6      63       62
 7      42       53
 8      86       64
 9      99       82
10      89       87
# ℹ 136 more rows
…
