Hypothesis testing – Modeling and inference
…
Simulate null distribution

set.seed(12345)
null_dist <- duke_forest |>
  specify(price ~ area) |>
  hypothesize(null = "independence") |>
  generate(reps = 1000, type = "permute") |>
  fit()

View null distribution

null_dist

# A tibble: 2,000 × 3
# Groups:   replicate [1,000]
   replicate term       estimate
       <int> <chr>         <dbl>
 1         1 intercept 535890.  
 2         1 area           8.64
 3         2 intercept 425016.  
 4         2 area          48.5 
 5         3 intercept 571721.  
 6         3 area          -4.25
 7         4 intercept 516473.  
 8         4 area          15.6 
 9         5 intercept 472642.  
10         5 area          31.4 
# ℹ 1,990 more rows
…
