Modeling and inference - Bootstrapping
…
Generate 15000 bootstrap samples

set.seed(12345)

edi_3br |>
  specify(response = rent) |>
  generate(reps = 15000, type = "bootstrap")

Response: rent (numeric)
# A tibble: 225,000 × 2
# Groups:   replicate [15,000]
   replicate  rent
       <int> <dbl>
 1         1  1995
 2         1  1900
 3         1  2995
 4         1  1995
 5         1  1950
 6         1  2995
 7         1  1250
 8         1  1400
 9         1  1950
10         1  2400
# ℹ 224,990 more rows

Calculate the mean of each bootstrap sample

set.seed(12345)

edi_3br |>
  specify(response = rent) |>
  generate(reps = 15000, type = "bootstrap") |>
  calculate(stat = "mean")

Response: rent (numeric)
# A tibble: 15,000 × 2
   replicate  stat
       <int> <dbl>
 1         1 2001 
 2         2 1886 
 3         3 1799.
 4         4 1968.
 5         5 1789 
 6         6 2018 
 7         7 1995.
 8         8 1867.
 9         9 2042 
10        10 1776.
# ℹ 14,990 more rows
…
set.seed(12345)

boot_dist <- edi_3br |>
  specify(response = rent) |>
  generate(reps = 15000, type = "bootstrap") |>
  calculate(stat = "mean")

The bootstrap sample

How many observations are there in boot_dist? What does each observation represent?

boot_dist

Response: rent (numeric)
# A tibble: 15,000 × 2
   replicate  stat
       <int> <dbl>
 1         1 2001 
 2         2 1886 
 3         3 1799.
 4         4 1968.
 5         5 1789 
 6         6 2018 
 7         7 1995.
 8         8 1867.
 9         9 2042 
10        10 1776.
# ℹ 14,990 more rows
…
