Modeling and inference - Quantifying uncertanity in the ICU
…
set.seed(12345)

null_dist <- gilbert |>
  specify(response = outcome, explanatory = working, success = "died") |> # specify variables
  hypothesize(null = "independence") |> # hypothesis test for independence
  generate(reps = 1000, type = "permute") |> # use permutation with appropriate number of reps
  calculate(stat = "diff in props", order = c("no-gilbert", "gilbert")) # specify statistic and order of subtraction

null_dist

Response: outcome (factor)
Explanatory: working (factor)
Null Hypothesis: ind...
# A tibble: 1,000 × 2
   replicate     stat
       <int>    <dbl>
 1         1 -0.00189
 2         2  0.00272
 3         3 -0.0111 
 4         4  0.0119 
 5         5  0.00733
 6         6  0.0166 
 7         7  0.0166 
 8         8 -0.00189
 9         9 -0.00189
10        10  0.0258 
# ℹ 990 more rows
…
