Linear regression with a categorical predictor – Modeling and inference
…
tidyverse for data wrangling and visualization

tidymodels for modeling

library(palmerpenguins)
library(tidyverse)
library(tidymodels)

Data: penguins

We’ll work with the penguins dataset from the palmerpenguins package, which contains information on body measurements of three species of Antarctic penguins:

penguins

# A tibble: 344 × 7
   species island    bill_length_mm bill_depth_mm
   <fct>   <fct>              <dbl>         <dbl>
 1 Adelie  Torgersen           39.1          18.7
 2 Adelie  Torgersen           39.5          17.4
 3 Adelie  Torgersen           40.3          18  
 4 Adelie  Torgersen           NA            NA  
 5 Adelie  Torgersen           36.7          19.3
 6 Adelie  Torgersen           39.3          20.6
 7 Adelie  Torgersen           38.9          17.8
 8 Adelie  Torgersen           39.2          19.6
 9 Adelie  Torgersen           34.1          18.1
10 Adelie  Torgersen           42            20.2
# ℹ 334 more rows
# ℹ 3 more variables: flipper_length_mm <int>,
#   body_mass_g <int>, sex <fct>
…
